<?xml version="1.0" encoding="UTF-8"?>
<session version="1.0">
<refactoring comment="Delete resource &apos;Homework10.4`&apos;" deleteContents="true" description="Delete resource &apos;Homework10.4`&apos;" element1="/Homework10.4`" flags="7" id="org.eclipse.ltk.core.refactoring.delete.resources" resources="1" stamp="1673376075013"/>
</session>