Bodak,Yellow,MALE,1,MyGroup
Snoop,Dogg,MALE,2,MyGroup
Ice,Cube,MALE,3,MyGroup
Missy,Elliott,FEMALE,4,MyGroup
Snoop,Dogg,MALE,5,MyGroup
Remy,Ma,FEMALE,6,MyGroup
Gwen,Stefani,FEMALE,7,MyGroup
Iggy,Azalea,FEMALE,8,MyGroup
Kanye,West,MALE,9,MyGroup
Kendrick,Lamar,MALE,10,MyGroup
